build/single_cycle_cpu_tb.vcd
$date
	Mon Nov 10 22:46:07 2025
$end
$version
	Icarus Verilog
$end
$timescale
	100ps
$end
$scope module single_cycle_cpu_tb $end
$var reg 1 ! clk $end
$var reg 1 " rst $end
$scope module dut $end
$var wire 1 ! clk $end
$var wire 1 " rst $end
$var wire 1 # s_jumpFlag $end
$var wire 32 $ s_jumpAddress [31:0] $end
$var wire 3 % s_funct3_idex [2:0] $end
$var wire 1 & s_flush_INST_CTRL_ID $end
$var wire 1 ' s_branchFlag_ex $end
$var wire 1 ( s_branchFlag $end
$var wire 1 ) s_Zero $end
$var wire 32 * s_WriteData [31:0] $end
$var wire 32 + s_SrcB [31:0] $end
$var wire 32 , s_SrcA [31:0] $end
$var wire 1 - s_ResultSrc_reg_mem $end
$var wire 1 . s_ResultSrc_reg $end
$var wire 1 / s_ResultSrc $end
$var wire 32 0 s_Result [31:0] $end
$var wire 1 1 s_RegWrite_reg_mem $end
$var wire 1 2 s_RegWrite_reg $end
$var wire 1 3 s_RegWrite $end
$var wire 32 4 s_ReadData_reg [31:0] $end
$var wire 32 5 s_ReadData [31:0] $end
$var wire 32 6 s_RD2_reg [31:0] $end
$var wire 32 7 s_RD1_reg [31:0] $end
$var wire 32 8 s_PC_Target [31:0] $end
$var wire 1 9 s_PCSrc_reg_mem $end
$var wire 1 : s_PCSrc_reg $end
$var wire 1 ; s_PCSrc $end
$var wire 32 < s_PC [31:0] $end
$var wire 1 = s_MemWrite_reg_mem $end
$var wire 1 > s_MemWrite_reg $end
$var wire 1 ? s_MemWrite $end
$var wire 32 @ s_Instr_reg [31:0] $end
$var wire 5 A s_Instr_ctrl_memwb [4:0] $end
$var wire 5 B s_Instr_ctrl_idex [4:0] $end
$var wire 32 C s_Instr [31:0] $end
$var wire 2 D s_ImmSrc_reg_mem [1:0] $end
$var wire 2 E s_ImmSrc_reg [1:0] $end
$var wire 2 F s_ImmSrc [1:0] $end
$var wire 32 G s_ImmExt_reg [31:0] $end
$var wire 32 H s_ImmExt [31:0] $end
$var wire 1 I s_ALUSrc_reg_mem $end
$var wire 1 J s_ALUSrc_reg $end
$var wire 1 K s_ALUSrc $end
$var wire 32 L s_ALUResult_reg [31:0] $end
$var wire 32 M s_ALUResult [31:0] $end
$var wire 3 N s_ALUControl_reg_mem [2:0] $end
$var wire 3 O s_ALUControl_reg [2:0] $end
$var wire 3 P s_ALUControl [2:0] $end
$var parameter 32 Q ADDR_WIDTH $end
$var parameter 32 R DATA_WIDTH $end
$var parameter 32 S REG_COUNT $end
$scope module alu1 $end
$var wire 3 T ALUControl [2:0] $end
$var wire 1 U adder_cin $end
$var wire 32 V and_out [31:0] $end
$var wire 32 W or_out [31:0] $end
$var wire 32 X slt_out [31:0] $end
$var wire 32 Y b_mux [31:0] $end
$var wire 32 Z adder_out [31:0] $end
$var wire 1 ) Zero $end
$var wire 32 [ SrcB [31:0] $end
$var wire 32 \ SrcA [31:0] $end
$var reg 32 ] ALUResult [31:0] $end
$scope module add $end
$var wire 32 ^ b [31:0] $end
$var wire 1 U cin $end
$var wire 32 _ result [31:0] $end
$var wire 1 ` cout $end
$var wire 32 a a [31:0] $end
$upscope $end
$upscope $end
$scope module ctrl1 $end
$var wire 1 : PCSrc $end
$var wire 1 ) Zero $end
$var wire 3 b funct3 [2:0] $end
$var wire 1 c funct7 $end
$var wire 7 d op [6:0] $end
$var reg 3 e ALUControl [2:0] $end
$var reg 1 J ALUSrc $end
$var reg 1 ' Branch $end
$var reg 2 f ImmSrc [1:0] $end
$var reg 1 # Jump $end
$var reg 1 > MemWrite $end
$var reg 1 2 RegWrite $end
$var reg 1 . ResultSrc $end
$var reg 2 g alu_mode [1:0] $end
$var reg 32 h jumpAddress [31:0] $end
$upscope $end
$scope module dataMem $end
$var wire 4 i addr [3:0] $end
$var wire 1 ! clk $end
$var wire 32 j dout [31:0] $end
$var wire 1 k sign_ext $end
$var wire 2 l size [1:0] $end
$var wire 1 = writeEnable $end
$var wire 32 m rdata [31:0] $end
$var wire 32 n mem_dout [31:0] $end
$var wire 32 o din [31:0] $end
$var wire 4 p byteEnable [3:0] $end
$var parameter 32 q ADDRESS_WIDTH $end
$var parameter 32 r DATA_WIDTH $end
$scope module decoder $end
$var wire 2 s addr_offset [1:0] $end
$var wire 2 t size [1:0] $end
$var wire 1 = writeEnable $end
$var reg 4 u byteEnable [3:0] $end
$upscope $end
$scope module mem_inst $end
$var wire 4 v addr [3:0] $end
$var wire 4 w byteEnable [3:0] $end
$var wire 1 ! clk $end
$var wire 32 x dout [31:0] $end
$var wire 32 y din [31:0] $end
$var parameter 32 z ADDRESS_WIDTH $end
$var parameter 32 { DATA_WIDTH $end
$scope module mem_byte0 $end
$var wire 4 | addr [3:0] $end
$var wire 1 ! clk $end
$var wire 8 } din [7:0] $end
$var wire 1 ~ we $end
$var parameter 32 !" ADDRESS_WIDTH $end
$var parameter 32 "" DATA_WIDTH $end
$var parameter 36 #" DEPTH $end
$var reg 8 $" dout [7:0] $end
$upscope $end
$scope module mem_byte1 $end
$var wire 4 %" addr [3:0] $end
$var wire 1 ! clk $end
$var wire 8 &" din [7:0] $end
$var wire 1 '" we $end
$var parameter 32 (" ADDRESS_WIDTH $end
$var parameter 32 )" DATA_WIDTH $end
$var parameter 36 *" DEPTH $end
$var reg 8 +" dout [7:0] $end
$upscope $end
$scope module mem_byte2 $end
$var wire 4 ," addr [3:0] $end
$var wire 1 ! clk $end
$var wire 8 -" din [7:0] $end
$var wire 1 ." we $end
$var parameter 32 /" ADDRESS_WIDTH $end
$var parameter 32 0" DATA_WIDTH $end
$var parameter 36 1" DEPTH $end
$var reg 8 2" dout [7:0] $end
$upscope $end
$scope module mem_byte3 $end
$var wire 4 3" addr [3:0] $end
$var wire 1 ! clk $end
$var wire 8 4" din [7:0] $end
$var wire 1 5" we $end
$var parameter 32 6" ADDRESS_WIDTH $end
$var parameter 32 7" DATA_WIDTH $end
$var parameter 36 8" DEPTH $end
$var reg 8 9" dout [7:0] $end
$upscope $end
$upscope $end
$scope module read_inst $end
$var wire 2 :" addr_offset [1:0] $end
$var wire 32 ;" dout [31:0] $end
$var wire 1 k sign_extend $end
$var wire 2 <" size [1:0] $end
$var reg 8 =" byte_data [7:0] $end
$var reg 16 >" halfword_data [15:0] $end
$var reg 32 ?" rdata [31:0] $end
$upscope $end
$upscope $end
$scope module ext1 $end
$var wire 2 @" ImmSrc [1:0] $end
$var wire 25 A" Instr [31:7] $end
$var wire 32 B" aux [31:0] $end
$var reg 32 C" ImmExt [31:0] $end
$upscope $end
$scope module instMem $end
$var wire 32 D" RD [31:0] $end
$var wire 32 E" A [31:0] $end
$upscope $end
$scope module mux_ALU_MEM $end
$var wire 1 / sel $end
$var wire 32 F" in1 [31:0] $end
$var wire 32 G" in0 [31:0] $end
$var wire 32 H" d [31:0] $end
$upscope $end
$scope module mux_alu $end
$var wire 1 I sel $end
$var wire 32 I" in1 [31:0] $end
$var wire 32 J" in0 [31:0] $end
$var wire 32 K" d [31:0] $end
$upscope $end
$scope module programCounter $end
$var wire 1 L" and_out $end
$var wire 1 ( branchFlag $end
$var wire 1 ! clk $end
$var wire 1 & flush_INST_CTRL_ID $end
$var wire 32 M" jumpAddress [31:0] $end
$var wire 1 # jumpFlag $end
$var wire 1 N" or_out $end
$var wire 1 " rst $end
$var wire 1 ) zeroFlag $end
$var wire 32 O" pc_add4 [31:0] $end
$var wire 32 P" next_pc [31:0] $end
$var wire 32 Q" branchOffset [31:0] $end
$var wire 32 R" PC [31:0] $end
$scope module add_pc4 $end
$var wire 1 S" cin $end
$var wire 32 T" result [31:0] $end
$var wire 1 U" cout $end
$var wire 32 V" b [31:0] $end
$var wire 32 W" a [31:0] $end
$upscope $end
$scope module mux_pc $end
$var wire 32 X" in_0 [31:0] $end
$var wire 32 Y" in_1 [31:0] $end
$var wire 2 Z" sel [1:0] $end
$var wire 32 [" y [31:0] $end
$var wire 32 \" in_3 [31:0] $end
$var wire 32 ]" in_2 [31:0] $end
$upscope $end
$scope module reg_pc $end
$var wire 1 ! clk $end
$var wire 32 ^" d [31:0] $end
$var wire 1 " rst $end
$var parameter 32 _" N $end
$var reg 32 `" q [31:0] $end
$upscope $end
$upscope $end
$scope module regFile $end
$var wire 5 a" A1 [4:0] $end
$var wire 5 b" A2 [4:0] $end
$var wire 5 c" A3 [4:0] $end
$var wire 32 d" WD3 [31:0] $end
$var wire 1 3 WE3 $end
$var wire 1 ! clk $end
$var wire 32 e" RD2 [31:0] $end
$var wire 32 f" RD1 [31:0] $end
$var parameter 32 g" ADDR_WIDTH $end
$var parameter 32 h" DATA_WIDTH $end
$var parameter 32 i" REG_COUNT $end
$upscope $end
$scope module reg_DATA_MEMORY $end
$var wire 1 ! clk $end
$var wire 32 j" d [31:0] $end
$var wire 1 " rst $end
$var parameter 32 k" N $end
$var reg 32 l" q [31:0] $end
$upscope $end
$scope module reg_IMM $end
$var wire 1 ! clk $end
$var wire 32 m" d [31:0] $end
$var wire 1 " rst $end
$var parameter 32 n" N $end
$var reg 32 o" q [31:0] $end
$upscope $end
$scope module reg_INST $end
$var wire 1 ! clk $end
$var wire 32 p" d [31:0] $end
$var wire 1 q" rst $end
$var parameter 32 r" N $end
$var reg 32 s" q [31:0] $end
$upscope $end
$scope module reg_alu_EX $end
$var wire 1 ! clk $end
$var wire 32 t" d [31:0] $end
$var wire 1 " rst $end
$var parameter 32 u" N $end
$var reg 32 v" q [31:0] $end
$upscope $end
$scope module reg_ctrl_IDEX $end
$var wire 1 ! clk $end
$var wire 19 w" d [18:0] $end
$var wire 1 " rst $end
$var parameter 32 x" N $end
$var reg 19 y" q [18:0] $end
$upscope $end
$scope module reg_ctrl_MEMWB $end
$var wire 1 ! clk $end
$var wire 15 z" d [14:0] $end
$var wire 1 " rst $end
$var parameter 32 {" N $end
$var reg 15 |" q [14:0] $end
$upscope $end
$scope module reg_regFileA_IDEX $end
$var wire 1 ! clk $end
$var wire 32 }" d [31:0] $end
$var wire 1 " rst $end
$var parameter 32 ~" N $end
$var reg 32 !# q [31:0] $end
$upscope $end
$scope module reg_regFileB_IDEX $end
$var wire 1 ! clk $end
$var wire 32 "# d [31:0] $end
$var wire 1 " rst $end
$var parameter 32 ## N $end
$var reg 32 $# q [31:0] $end
$upscope $end
$scope module somaTarget $end
$var wire 32 %# a [31:0] $end
$var wire 32 &# b [31:0] $end
$var wire 1 '# cin $end
$var wire 32 (# result [31:0] $end
$var wire 1 )# cout $end
$upscope $end
$upscope $end
$upscope $end
$enddefinitions $end
$comment Show the parameter values. $end
$dumpall
b100000 ##
b100000 ~"
b1111 {"
b10011 x"
b100000 u"
b100000 r"
b100000 n"
b100000 k"
b100000 i"
b100000 h"
b101 g"
b100000 _"
b10000 8"
b1000 7"
b100 6"
b10000 1"
b1000 0"
b100 /"
b10000 *"
b1000 )"
b100 ("
b10000 #"
b1000 ""
b100 !"
b100000 {
b100 z
b100000 r
b100 q
b100000 S
b100000 R
b101 Q
$end
#0
$dumpvars
0)#
b0 (#
0'#
b0 &#
b0 %#
b0 $#
b0 "#
b0 !#
b0 }"
b0 |"
b0 z"
b0 y"
b0 w"
b0 v"
b0 t"
b0 s"
1q"
b1010010011 p"
b0 o"
b0 m"
b0 l"
bx j"
b0 f"
b0 e"
b0 d"
b0 c"
b0 b"
b0 a"
b0 `"
b100 ^"
b0 ]"
b0 \"
b100 ["
b0 Z"
bx Y"
b100 X"
b100 W"
b0 V"
0U"
b100 T"
0S"
b0 R"
b0 Q"
b100 P"
b100 O"
0N"
bx M"
0L"
b0 K"
b0 J"
b0 I"
b0 H"
b0 G"
b0 F"
b0 E"
b1010010011 D"
b0 C"
b0 B"
b0 A"
b0 @"
bx ?"
bx >"
bx ="
b0 <"
bx ;"
b0 :"
bx 9"
05"
b0 4"
b0 3"
bx 2"
0."
b0 -"
b0 ,"
bx +"
0'"
b0 &"
b0 %"
bx $"
0~
b0 }
b0 |
b0 y
bx x
b0 w
b0 v
b0 u
b0 t
b0 s
b0 p
b0 o
bx n
bx m
b0 l
0k
bx j
b0 i
bx h
b0 g
b0 f
b0 e
b0 d
0c
b0 b
b0 a
0`
b0 _
b0 ^
b0 ]
b0 \
b0 [
b0 Z
b0 Y
b0 X
b0 W
b0 V
0U
b0 T
b0 P
b0 O
b0 N
b0 M
b0 L
0K
0J
0I
b0 H
b0 G
b0 F
b0 E
b0 D
b0 C
b0 B
b0 A
b1010010011 @
0?
0>
0=
b0 <
0;
0:
09
b0 8
b0 7
b0 6
b0 5
bx 4
03
02
01
b0 0
0/
0.
0-
b0 ,
b0 +
b0 *
1)
0(
0'
0&
b0 %
bx $
0#
1"
0!
$end
#50
1!
#100
0q"
0!
0"
#150
b10 g
1J
12
b100 8
b100 (#
b1000 O"
b1000 T"
b1000 ^"
b1000000000000001100010011 @
b1000000000000001100010011 D"
b1000000000000001100010011 p"
b1001001010000 w"
b10011 d
b1010000000 B"
b101 A"
b100 <
b100 E"
b100 R"
b100 V"
b100 `"
b100 %#
bx 5
bx F"
bx l"
b1010010011 C
b1010010011 s"
1!
#200
0!
#250
b10000 G
b10000 C"
b10000 m"
bx 6
bx e"
bx "#
b101 B
11
b100100101 z"
1I
b1000 8
b1000 (#
b1100 O"
b1100 T"
b1100 ^"
b10011 @
b10011 D"
b10011 p"
b1001001100000 w"
b1000000000000001100000000 B"
b100000000000000110 A"
b10000 b"
b1001001010000 y"
b1000 <
b1000 E"
b1000 R"
b1000 V"
b1000 `"
b1000 %#
b1000000000000001100010011 C
b1000000000000001100010011 s"
1!
#300
0!
#350
b0 G
b0 C"
b0 m"
0)
b10000 L
b10000 ]
b10000 t"
b10000 Z
b10000 _
b10000 Y
b10000 ^
b10000 W
b0 6
b0 e"
b0 "#
b10000 O"
b10000 T"
b10000 ^"
bx 4"
bx -"
bx &"
bx }
b11100 8
b11100 (#
b10000 +
b10000 [
b10000 K"
b100100110 z"
b110 B
b101 A
b101 c"
13
1K
b1001000000000 w"
b0 B"
b0 A"
b0 b"
b1100 <
b1100 E"
b1100 R"
b1100 V"
b1100 `"
b1100 %#
bx *
bx o
bx y
bx J"
bx $#
b10000 H
b10000 I"
b10000 Q"
b10000 \"
b10000 ]"
b10000 o"
b10000 &#
b1001001100000 y"
b100100101 |"
b10011 C
b10011 s"
1!
#400
0!
#450
1)
b0 L
b0 ]
b0 t"
b0 Z
b0 _
b0 Y
b0 ^
b0 W
b10000 0
b10000 H"
b10000 d"
b110 A
b110 c"
b100100000 z"
b0 B
b0 +
b0 [
b0 K"
b0 4"
b0 -"
b0 &"
b0 }
b10000 8
b10000 (#
b10100 O"
b10100 T"
b10100 ^"
b101000001110000011 @
b101000001110000011 D"
b101000001110000011 p"
b10000 M
b10000 G"
b10000 v"
b100100110 |"
b1001000000000 y"
b0 H
b0 I"
b0 Q"
b0 \"
b0 ]"
b0 o"
b0 &#
b0 *
b0 o
b0 y
b0 J"
b0 $#
b10000 <
b10000 E"
b10000 R"
b10000 V"
b10000 `"
b10000 %#
1!
#500
0!
#550
1.
b0 g
12
1J
b10100 8
b10100 (#
b11000 O"
b11000 T"
b11000 ^"
b101100111000000011 @
b101100111000000011 D"
b101100111000000011 p"
b0 A
b0 c"
b0 0
b0 H"
b0 d"
b100001001001110000 w"
b11 d
b101000001110000000 B"
b10100000111 A"
b101 a"
b10100 <
b10100 E"
b10100 R"
b10100 V"
b10100 `"
b10100 %#
b100100000 |"
b0 M
b0 G"
b0 v"
b101000001110000011 C
b101000001110000011 s"
1!
#600
0!
#650
b111 B
b10000100100111 z"
1-
b11000 8
b11000 (#
b11100 O"
b11100 T"
b11100 ^"
b1000101001111010000011 @
b1000101001111010000011 D"
b1000101001111010000011 p"
b100001001111000100 w"
b100 b
b101100111000000000 B"
b10110011100 A"
b100001001001110000 y"
b11000 <
b11000 E"
b11000 R"
b11000 V"
b11000 `"
b11000 %#
b101100111000000011 C
b101100111000000011 s"
1!
#700
0!
#750
b10 G
b10 C"
b10 m"
b0xxxxxxxx 4
b0xxxxxxxx j
b0xxxxxxxx j"
b0xxxxxxxx m
b0xxxxxxxx ?"
1k
bx 0
bx H"
bx d"
bx 6
bx e"
bx "#
b11100 8
b11100 (#
b100000 O"
b100000 T"
b100000 ^"
b1000101101111100000011 @
b1000101101111100000011 D"
b1000101101111100000011 p"
b100 %
b10000100111100 z"
b11100 B
b111 A
b111 c"
1/
b100001001111010001 w"
b1 b
b1000101001111010000000 B"
b100010100111101 A"
b10 b"
b11100 <
b11100 E"
b11100 R"
b11100 V"
b11100 `"
b11100 %#
b100001001111000100 y"
b10000100100111 |"
b1000101001111010000011 C
b1000101001111010000011 s"
1!
#800
0!
#850
b10 s
b10 :"
b10 i
b10 v
b10 |
b10 %"
b10 ,"
b10 3"
0)
b10 L
b10 ]
b10 t"
bx 4
bx j
bx j"
bx m
bx ?"
b10 Z
b10 _
b1 l
b1 t
b1 <"
0k
b10 Y
b10 ^
b10 W
b0xxxxxxxx 0
b0xxxxxxxx H"
b0xxxxxxxx d"
b11100 A
b11100 c"
b1 %
b10000100111101 z"
b11101 B
b10 +
b10 [
b10 K"
bx 4"
bx -"
bx &"
bx }
b100010 8
b100010 (#
b100100 O"
b100100 T"
b100100 ^"
b10000101010111110000011 @
b10000101010111110000011 D"
b10000101010111110000011 p"
b100001001111100101 w"
b101 b
b1000101101111100000000 B"
b100010110111110 A"
b0xxxxxxxx 5
b0xxxxxxxx F"
b0xxxxxxxx l"
b10000100111100 |"
b100001001111010001 y"
b10 H
b10 I"
b10 Q"
b10 \"
b10 ]"
b10 o"
b10 &#
bx *
bx o
bx y
bx J"
bx $#
b100000 <
b100000 E"
b100000 R"
b100000 V"
b100000 `"
b100000 %#
b1000101101111100000011 C
b1000101101111100000011 s"
1!
#900
0!
#950
b100 G
b100 C"
b100 m"
b0xxxxxxxxxxxxxxxx 4
b0xxxxxxxxxxxxxxxx j
b0xxxxxxxxxxxxxxxx j"
b0xxxxxxxxxxxxxxxx m
b0xxxxxxxxxxxxxxxx ?"
1k
b100110 8
b100110 (#
b101000 O"
b101000 T"
b101000 ^"
b11100110000000000100011 @
b11100110000000000100011 D"
b11100110000000000100011 p"
b101 %
b10000100111110 z"
b11110 B
b11101 A
b11101 c"
bx 0
bx H"
bx d"
b100001001111110010 w"
b10 b
b10000101010111110000000 B"
b1000010101011111 A"
b100 b"
b100100 <
b100100 E"
b100100 R"
b100100 V"
b100100 `"
b100100 %#
b100001001111100101 y"
b10000100111101 |"
b10 M
b10 G"
b10 v"
bx 5
bx F"
bx l"
b10000101010111110000011 C
b10000101010111110000011 s"
1!
#1000
0!
#1050
b1 E
b1 f
b1 @"
1>
02
1J
0.
b0 G
b0 C"
b0 m"
b0 s
b0 :"
b100 i
b100 v
b100 |
b100 %"
b100 ,"
b100 3"
b100 L
b100 ]
b100 t"
bx 4
bx j
bx j"
bx m
bx ?"
b100 Z
b100 _
b10 l
b10 t
b10 <"
0k
b100 Y
b100 ^
b100 W
b10000 7
b10000 f"
b10000 }"
b0xxxxxxxxxxxxxxxx 0
b0xxxxxxxxxxxxxxxx H"
b0xxxxxxxxxxxxxxxx d"
b11110 A
b11110 c"
b10 %
b10000100111111 z"
b11111 B
b100 +
b100 [
b100 K"
b101100 8
b101100 (#
b101100 O"
b101100 T"
b101100 ^"
b1110000110000000010100011 @
b1110000110000000010100011 D"
b1110000110000000010100011 p"
b10001010000000000 w"
b0 b
b100011 d
b11100110000000000000000 B"
b1110011000000000 A"
b111 b"
b110 a"
b0xxxxxxxxxxxxxxxx 5
b0xxxxxxxxxxxxxxxx F"
b0xxxxxxxxxxxxxxxx l"
b10000100111110 |"
b100001001111110010 y"
b100 H
b100 I"
b100 Q"
b100 \"
b100 ]"
b100 o"
b100 &#
b101000 <
b101000 E"
b101000 R"
b101000 V"
b101000 `"
b101000 %#
b11100110000000000100011 C
b11100110000000000100011 s"
1!
#1100
0!
#1150
b1 G
b1 C"
b1 m"
b0 i
b0 v
b0 |
b0 %"
b0 ,"
b0 3"
1~
0'"
0."
05"
b10000 L
b10000 ]
b10000 t"
b0 Y
b0 ^
b0 l
b0 t
b0 <"
b1 p
b1 u
b1 w
b0xxxxxxxx 6
b0xxxxxxxx e"
b0xxxxxxxx "#
b110000 O"
b110000 T"
b110000 ^"
b1110100110001000100100011 @
b1110100110001000100100011 D"
b1110100110001000100100011 p"
b10000 Z
b10000 _
b10000 W
b0 +
b0 [
b0 K"
b0 %
b0 B
01
b1 D
1=
b1000101000000 z"
0-
b11111 A
b11111 c"
bx 0
bx H"
bx d"
b10001010000010000 w"
b1110000110000000010000000 B"
b111000011000000001 A"
b11100 b"
b101100 <
b101100 E"
b101100 R"
b101100 V"
b101100 `"
b101100 %#
b10000 ,
b10000 \
b10000 a
b10000 !#
b0 H
b0 I"
b0 Q"
b0 \"
b0 ]"
b0 o"
b0 &#
b10001010000000000 y"
b10000100111111 |"
b100 M
b100 G"
b100 v"
bx 5
bx F"
bx l"
b1110000110000000010100011 C
b1110000110000000010100011 s"
1!
#1200
0!
#1250
b10 G
b10 C"
b10 m"
0~
1'"
b10 p
b10 u
b10 w
b1 s
b1 :"
b1 i
b1 v
b1 |
b1 %"
b1 ,"
b1 3"
b10001 L
b10001 ]
b10001 t"
b10001 Z
b10001 _
b10000 0
b10000 H"
b10000 d"
b1 Y
b1 ^
b10001 W
bx 6
bx e"
bx "#
b0 A
b0 c"
03
b1 F
1?
0/
b1000101000001 z"
b1 B
b1 +
b1 [
b1 K"
b0 4"
b0 -"
b0 &"
b110001 8
b110001 (#
b110100 O"
b110100 T"
b110100 ^"
b1111000110001001000100011 @
b1111000110001001000100011 D"
b1111000110001001000100011 p"
b10001010000100001 w"
b1 b
b1110100110001000100000000 B"
b111010011000100010 A"
b11101 b"
b10000 M
b10000 G"
b10000 v"
b1000101000000 |"
b10001010000010000 y"
b1 H
b1 I"
b1 Q"
b1 \"
b1 ]"
b1 o"
b1 &#
b0xxxxxxxx *
b0xxxxxxxx o
b0xxxxxxxx y
b0xxxxxxxx J"
b0xxxxxxxx $#
b110000 <
b110000 E"
b110000 R"
b110000 V"
b110000 `"
b110000 %#
b1110100110001000100100011 C
b1110100110001000100100011 s"
1!
#1300
0!
#1350
b100 G
b100 C"
b100 m"
0'"
15"
b10 s
b10 :"
b10 i
b10 v
b10 |
b10 %"
b10 ,"
b10 3"
b10010 L
b10010 ]
b10010 t"
1."
b10010 Z
b10010 _
b1100 p
b1100 u
b1100 w
b10 Y
b10 ^
b10010 W
b1 l
b1 t
b1 <"
b0xxxxxxxxxxxxxxxx 6
b0xxxxxxxxxxxxxxxx e"
b0xxxxxxxxxxxxxxxx "#
bx 4
bx j
bx j"
bx m
bx ?"
bx >"
bx ="
b111000 O"
b111000 T"
b111000 ^"
b1111100110010010000100011 @
b1111100110010010000100011 D"
b1111100110010010000100011 p"
bx 4"
bx -"
bx &"
b110110 8
b110110 (#
b10 +
b10 [
b10 K"
b1 %
b1000101000010 z"
b10 B
b1 A
b1 c"
b10001 0
b10001 H"
b10001 d"
b10001010001000001 w"
b1111000110001001000000000 B"
b111100011000100100 A"
b11110 b"
bx n
bx x
bx ;"
bx +"
b110100 <
b110100 E"
b110100 R"
b110100 V"
b110100 `"
b110100 %#
bx *
bx o
bx y
bx J"
bx $#
b10 H
b10 I"
b10 Q"
b10 \"
b10 ]"
b10 o"
b10 &#
b10001010000100001 y"
b1000101000001 |"
b10001 M
b10001 G"
b10001 v"
b1111000110001001000100011 C
b1111000110001001000100011 s"
1!
#1400
0!
#1450
b1000 G
b1000 C"
b1000 m"
1~
1'"
0."
05"
b11 p
b11 u
b11 w
b0 s
b0 :"
b100 i
b100 v
b100 |
b100 %"
b100 ,"
b100 3"
b10100 L
b10100 ]
b10100 t"
b10100 Z
b10100 _
b100 Y
b100 ^
b10100 W
bx 6
bx e"
bx "#
b10010 0
b10010 H"
b10010 d"
b10 A
b10 c"
b1000101000100 z"
b100 B
b100 +
b100 [
b100 K"
b0 4"
b0 -"
b111100 8
b111100 (#
b111100 O"
b111100 T"
b111100 ^"
b111111100000000001110010011 @
b111111100000000001110010011 D"
b111111100000000001110010011 p"
b10001010010000010 w"
b10 b
b1111100110010010000000000 B"
b111110011001001000 A"
b11111 b"
b10010 M
b10010 G"
b10010 v"
b1000101000010 |"
b10001010001000001 y"
b100 H
b100 I"
b100 Q"
b100 \"
b100 ]"
b100 o"
b100 &#
b0xxxxxxxxxxxxxxxx *
b0xxxxxxxxxxxxxxxx o
b0xxxxxxxxxxxxxxxx y
b0xxxxxxxxxxxxxxxx J"
b0xxxxxxxxxxxxxxxx $#
b111000 <
b111000 E"
b111000 R"
b111000 V"
b111000 `"
b111000 %#
b1111100110010010000100011 C
b1111100110010010000100011 s"
1!
#1500
0!
#1550
b10 g
12
b0 E
b0 f
b0 @"
1J
0>
b1111111 G
b1111111 C"
b1111111 m"
b1000 i
b1000 v
b1000 |
b1000 %"
b1000 ,"
b1000 3"
b11000 L
b11000 ]
b11000 t"
1."
15"
b11000 Z
b11000 _
b1111 p
b1111 u
b1111 w
b1000 Y
b1000 ^
b11000 W
b10 l
b10 t
b10 <"
b0 7
b0 f"
b0 }"
b1000000 O"
b1000000 T"
b1000000 ^"
b10011 @
b10011 D"
b10011 p"
bx 4"
bx -"
b1000100 8
b1000100 (#
b1000 +
b1000 [
b1000 K"
b10 %
b1000101001000 z"
b1000 B
b100 A
b100 c"
b10100 0
b10100 H"
b10100 d"
b1001001110000 w"
b0 b
b10011 d
b111111100000000001110000000 B"
b11111110000000000111 A"
b0 a"
b111100 <
b111100 E"
b111100 R"
b111100 V"
b111100 `"
b111100 %#
bx *
bx o
bx y
bx J"
bx $#
b1000 H
b1000 I"
b1000 Q"
b1000 \"
b1000 ]"
b1000 o"
b1000 &#
b10001010010000010 y"
b1000101000100 |"
b10100 M
b10100 G"
b10100 v"
b111111100000000001110010011 C
b111111100000000001110010011 s"
1!
#1600
0!
#1650
b0 G
b0 C"
b0 m"
b0xxxxxxxx >"
b11 s
b11 :"
b1111 i
b1111 v
b1111 |
b1111 %"
b1111 ,"
b1111 3"
0~
0'"
0."
05"
b0 l
b0 t
b0 <"
b0 p
b0 u
b0 w
b1111111 Y
b1111111 ^
b1111111 L
b1111111 ]
b1111111 t"
b0 6
b0 e"
b0 "#
b11000 0
b11000 H"
b11000 d"
b1000 A
b1000 c"
b0 %
b111 B
11
b0 D
b100100111 z"
0=
b1111111 +
b1111111 [
b1111111 K"
b1111111 Z
b1111111 _
b1111111 W
b10111111 8
b10111111 (#
b1000100 O"
b1000100 T"
b1000100 ^"
b1001000000000 w"
b0 B"
b0 A"
b0 b"
b11000 M
b11000 G"
b11000 v"
b1000101001000 |"
b1001001110000 y"
b1111111 H
b1111111 I"
b1111111 Q"
b1111111 \"
b1111111 ]"
b1111111 o"
b1111111 &#
b0 ,
b0 \
b0 a
b0 !#
b1000000 <
b1000000 E"
b1000000 R"
b1000000 V"
b1000000 `"
b1000000 %#
b10011 C
b10011 s"
1!
#1700
0!
#1750
bx >"
b0 s
b0 :"
b0 i
b0 v
b0 |
b0 %"
b0 ,"
b0 3"
1)
b0 L
b0 ]
b0 t"
b0 Z
b0 _
b0 Y
b0 ^
b0 W
b1001000 O"
b1001000 T"
b1001000 ^"
b0 4"
b0 -"
b0 &"
b0 }
b1000100 8
b1000100 (#
b0 +
b0 [
b0 K"
b100100000 z"
b0 B
b111 A
b111 c"
13
b0 F
0?
b1111111 0
b1111111 H"
b1111111 d"
b1000100 <
b1000100 E"
b1000100 R"
b1000100 V"
b1000100 `"
b1000100 %#
b0 *
b0 o
b0 y
b0 J"
b0 $#
b0 H
b0 I"
b0 Q"
b0 \"
b0 ]"
b0 o"
b0 &#
b1001000000000 y"
b100100111 |"
b1111111 M
b1111111 G"
b1111111 v"
1!
#1800
0!
#1850
b0 0
b0 H"
b0 d"
b0 A
b0 c"
b1001000 8
b1001000 (#
b1001100 O"
b1001100 T"
b1001100 ^"
b0 M
b0 G"
b0 v"
b100100000 |"
b1001000 <
b1001000 E"
b1001000 R"
b1001000 V"
b1001000 `"
b1001000 %#
1!
#1900
0!
#1950
b1001100 8
b1001100 (#
b1010000 O"
b1010000 T"
b1010000 ^"
b11100110000011000100011 @
b11100110000011000100011 D"
b11100110000011000100011 p"
b1001100 <
b1001100 E"
b1001100 R"
b1001100 V"
b1001100 `"
b1001100 %#
1!
#2000
0!
#2050
b1 E
b1 f
b1 @"
1>
b0 g
02
1J
b1100 G
b1100 C"
b1100 m"
b1111111 6
b1111111 e"
b1111111 "#
b10000 7
b10000 f"
b10000 }"
b1010000 8
b1010000 (#
b1010100 O"
b1010100 T"
b1010100 ^"
b11111111111000000000111000010011 @
b11111111111000000000111000010011 D"
b11111111111000000000111000010011 p"
b10001010011000000 w"
b100011 d
b11100110000011000000000 B"
b1110011000001100 A"
b111 b"
b110 a"
b1010000 <
b1010000 E"
b1010000 R"
b1010000 V"
b1010000 `"
b1010000 %#
b11100110000011000100011 C
b11100110000011000100011 s"
1!
#2100
0!
